[
  {
    "scope": "https://api.flickr.com:443",
    "method": "GET",
    "path": "/services/rest?method=flickr.photos.licenses.getInfo&format=json&nojsoncallback=1&api_key=API_KEY",
    "body": "",
    "status": 200,
    "response": [
      "1f8b0800000000000003acd35d6bc2301406e0bf1272b5416daafbee9d28ec6693a18c5d2cbb88e9591bda2692a42d4efcef8b5fddec2a13f4aea127ef734e481638131ca40183c3c5ee1b87ef0b2c221c061e962c776bdccf32341671620d1a83015d42843d5ce8ccfdc34b6f537efd536ead16d3c20a25d1d33674579e583b33212594700dcc8a12b8ca73258daf744cc9ae1f4aa6734a7a7e40490ddcb6019d911a8216a53945eac8a8895d1dc0e4c08580e6826567a2798bdefb5f3f116d8add23e69d244c433f13299c3ab1614dffa6d53f93f897bbabb99142a95495445ccde67a75c99106e35ae0ab0e4c8b575595ffe9f253ed3bd2f91b9792c2b0187e21f735f22a8585084d2cb360d0a32a41cb1ca4456f4aa77b442db8303f56e52a7edb976f129b6775fa439dfe524c5d3b68a87226241a4224385b3fbe8bc120b83cf6c466eb94681d42c91768454977ff8e0407c867d698e26826773b6be663e961e38ec885a8142fbf010000ffff030034c305a09e040000"
    ],
    "rawHeaders": [
      "Content-Type",
      "application/json",
      "Transfer-Encoding",
      "chunked",
      "Connection",
      "close",
      "Vary",
      "Accept-Encoding",
      "Date",
      "Sat, 10 Jun 2023 15:17:50 GMT",
      "server",
      "Apache/2.4.57 (Ubuntu)",
      "set-cookie",
      "ccc=%7B%22needsConsent%22%3Atrue%2C%22managed%22%3A0%2C%22changed%22%3A0%2C%22info%22%3A%7B%22cookieBlock%22%3A%7B%22level%22%3A0%2C%22blockRan%22%3A0%7D%7D%7D; expires=Mon, 10-Jul-2023 15:17:50 GMT; Max-Age=2592000; path=/; domain=.flickr.com",
      "set-cookie",
      "ccc=%7B%22needsConsent%22%3Atrue%2C%22managed%22%3A0%2C%22changed%22%3A0%2C%22info%22%3A%7B%22cookieBlock%22%3A%7B%22level%22%3A0%2C%22blockRan%22%3A1%7D%7D%7D; expires=Mon, 10-Jul-2023 15:17:50 GMT; Max-Age=2592000; path=/; domain=.flickr.com",
      "x-content-type-options",
      "nosniff",
      "x-frame-options",
      "SAMEORIGIN",
      "Content-Encoding",
      "gzip",
      "X-Cache",
      "Miss from cloudfront",
      "Via",
      "1.1 56ac4d409ea3c91f84bc0c30648a1434.cloudfront.net (CloudFront)",
      "X-Amz-Cf-Pop",
      "LHR50-P8",
      "X-Amz-Cf-Id",
      "-xLFa1ly1XHKdh4glNGzGpeMuZlbdtwiOvV2fXgK5hd7p3nHewJrJw=="
    ],
    "responseIsBinary": false
  },
  {
    "scope": "https://api.flickr.com:443",
    "method": "GET",
    "path": "/services/rest?method=flickr.people.findByUsername&username=USER_NAME&format=json&nojsoncallback=1&api_key=API_KEY",
    "body": "",
    "status": 200,
    "response": {
      "user": {
        "id": "id",
        "nsid": "USER_ID",
        "username": {
          "_content": "USER_NAME"
        }
      },
      "stat": "ok"
    },
    "rawHeaders": [
      "Content-Type",
      "application/json",
      "Content-Length",
      "102",
      "Connection",
      "close",
      "Date",
      "Sat, 10 Jun 2023 15:17:50 GMT",
      "server",
      "Apache/2.4.57 (Ubuntu)",
      "set-cookie",
      "ccc=%7B%22needsConsent%22%3Atrue%2C%22managed%22%3A0%2C%22changed%22%3A0%2C%22info%22%3A%7B%22cookieBlock%22%3A%7B%22level%22%3A0%2C%22blockRan%22%3A0%7D%7D%7D; expires=Mon, 10-Jul-2023 15:17:50 GMT; Max-Age=2592000; path=/; domain=.flickr.com",
      "set-cookie",
      "ccc=%7B%22needsConsent%22%3Atrue%2C%22managed%22%3A0%2C%22changed%22%3A0%2C%22info%22%3A%7B%22cookieBlock%22%3A%7B%22level%22%3A0%2C%22blockRan%22%3A1%7D%7D%7D; expires=Mon, 10-Jul-2023 15:17:50 GMT; Max-Age=2592000; path=/; domain=.flickr.com",
      "x-content-type-options",
      "nosniff",
      "x-frame-options",
      "SAMEORIGIN",
      "X-Cache",
      "Miss from cloudfront",
      "Via",
      "1.1 876578453b1f658c7eb9b605fcd46df4.cloudfront.net (CloudFront)",
      "X-Amz-Cf-Pop",
      "LHR50-P8",
      "X-Amz-Cf-Id",
      "qK62bC47is7Po1iAqt_b7sevlaqzAHqNVM_oK81DMpB0lnnM_mroAg=="
    ],
    "responseIsBinary": false
  },
  {
    "scope": "https://api.flickr.com:443",
    "method": "GET",
    "path": "/services/rest?method=flickr.people.getPublicPhotos&user_id=USER_ID&extras=url_sq%2Curl_q%2Curl_t%2Curl_s%2Curl_n%2Curl_m%2Curl_z%2Curl_c%2Curl_l%2Curl_h%2Curl_k%2Curl_ogeo&per_page=100&page=1&format=json&nojsoncallback=1&api_key=API_KEY",
    "body": "",
    "status": 200,
    "response": {
      "photos": {
        "page": 1,
        "pages": 2,
        "perpage": 100,
        "total": 140,
        "photo": [
          {
            "id": "1",
            "owner": "owner",
            "secret": "secret",
            "server": "12345",
            "farm": 0,
            "title": "title",
            "ispublic": 1,
            "isfriend": 0,
            "isfamily": 0,
            "license": "0",
            "description": { "_content": "description" },
            "dateupload": "1667328192",
            "lastupdate": "1667665974",
            "datetaken": "2022-11-01 18:42:51",
            "datetakengranularity": 0,
            "datetakenunknown": "1",
            "ownername": "ownername",
            "iconserver": "1234",
            "iconfarm": 1,
            "views": "12",
            "tags": "t1 t2 t3",
            "machine_tags": "",
            "latitude": 0,
            "longitude": 0,
            "accuracy": 0,
            "context": 0,
            "media": "photo",
            "media_status": "ready",
            "url_sq": "photo_url",
            "height_sq": 75,
            "width_sq": 75,
            "url_t": "photo_url",
            "height_t": 100,
            "width_t": 67,
            "url_s": "photo_url",
            "height_s": 240,
            "width_s": 160,
            "url_q": "photo_url",
            "height_q": 150,
            "width_q": 150,
            "url_m": "photo_url",
            "height_m": 500,
            "width_m": 333,
            "url_n": "photo_url",
            "height_n": 320,
            "width_n": 213,
            "url_z": "photo_url",
            "height_z": 640,
            "width_z": 427,
            "url_c": "photo_url",
            "height_c": 800,
            "width_c": 533,
            "url_l": "photo_url",
            "height_l": 1024,
            "width_l": 683,
            "url_h": "photo_url",
            "height_h": 1600,
            "width_h": 1066,
            "url_k": "photo_url",
            "height_k": 2048,
            "width_k": 1365,
            "pathalias": "pathalias"
          },
          {
            "id": "2",
            "owner": "owner",
            "secret": "secret",
            "server": "12345",
            "farm": 0,
            "title": "title",
            "ispublic": 1,
            "isfriend": 0,
            "isfamily": 0,
            "license": "0",
            "description": { "_content": "description" },
            "dateupload": "1667328192",
            "lastupdate": "1667665974",
            "datetaken": "2022-11-01 18:42:51",
            "datetakengranularity": 0,
            "datetakenunknown": "1",
            "ownername": "ownername",
            "iconserver": "1234",
            "iconfarm": 1,
            "views": "12",
            "tags": "t1 t2 t3",
            "machine_tags": "",
            "latitude": 0,
            "longitude": 0,
            "accuracy": 0,
            "context": 0,
            "media": "photo",
            "media_status": "ready",
            "url_sq": "photo_url",
            "height_sq": 75,
            "width_sq": 75,
            "url_t": "photo_url",
            "height_t": 100,
            "width_t": 67,
            "url_s": "photo_url",
            "height_s": 240,
            "width_s": 160,
            "url_q": "photo_url",
            "height_q": 150,
            "width_q": 150,
            "url_m": "photo_url",
            "height_m": 500,
            "width_m": 333,
            "url_n": "photo_url",
            "height_n": 320,
            "width_n": 213,
            "url_z": "photo_url",
            "height_z": 640,
            "width_z": 427,
            "url_c": "photo_url",
            "height_c": 800,
            "width_c": 533,
            "url_l": "photo_url",
            "height_l": 1024,
            "width_l": 683,
            "url_h": "photo_url",
            "height_h": 1600,
            "width_h": 1066,
            "url_k": "photo_url",
            "height_k": 2048,
            "width_k": 1365,
            "pathalias": "pathalias"
          },
          {
            "id": "3",
            "owner": "owner",
            "secret": "secret",
            "server": "12345",
            "farm": 0,
            "title": "title",
            "ispublic": 1,
            "isfriend": 0,
            "isfamily": 0,
            "license": "0",
            "description": { "_content": "description" },
            "dateupload": "1667328192",
            "lastupdate": "1667665974",
            "datetaken": "2022-11-01 18:42:51",
            "datetakengranularity": 0,
            "datetakenunknown": "1",
            "ownername": "ownername",
            "iconserver": "1234",
            "iconfarm": 1,
            "views": "12",
            "tags": "t1 t2 t3",
            "machine_tags": "",
            "latitude": 0,
            "longitude": 0,
            "accuracy": 0,
            "context": 0,
            "media": "photo",
            "media_status": "ready",
            "url_sq": "photo_url",
            "height_sq": 75,
            "width_sq": 75,
            "url_t": "photo_url",
            "height_t": 100,
            "width_t": 67,
            "url_s": "photo_url",
            "height_s": 240,
            "width_s": 160,
            "url_q": "photo_url",
            "height_q": 150,
            "width_q": 150,
            "url_m": "photo_url",
            "height_m": 500,
            "width_m": 333,
            "url_n": "photo_url",
            "height_n": 320,
            "width_n": 213,
            "url_z": "photo_url",
            "height_z": 640,
            "width_z": 427,
            "url_c": "photo_url",
            "height_c": 800,
            "width_c": 533,
            "url_l": "photo_url",
            "height_l": 1024,
            "width_l": 683,
            "url_h": "photo_url",
            "height_h": 1600,
            "width_h": 1066,
            "url_k": "photo_url",
            "height_k": 2048,
            "width_k": 1365,
            "pathalias": "pathalias"
          }
        ]
      },
      "stat": "ok"
    },
    "rawHeaders": [
      "Content-Type",
      "application/json",
      "Transfer-Encoding",
      "chunked",
      "Connection",
      "close",
      "Date",
      "Sat, 10 Jun 2023 15:17:50 GMT",
      "server",
      "Apache/2.4.57 (Ubuntu)",
      "set-cookie",
      "ccc=%7B%22needsConsent%22%3Atrue%2C%22managed%22%3A0%2C%22changed%22%3A0%2C%22info%22%3A%7B%22cookieBlock%22%3A%7B%22level%22%3A0%2C%22blockRan%22%3A0%7D%7D%7D; expires=Mon, 10-Jul-2023 15:17:50 GMT; Max-Age=2592000; path=/; domain=.flickr.com",
      "set-cookie",
      "ccc=%7B%22needsConsent%22%3Atrue%2C%22managed%22%3A0%2C%22changed%22%3A0%2C%22info%22%3A%7B%22cookieBlock%22%3A%7B%22level%22%3A0%2C%22blockRan%22%3A1%7D%7D%7D; expires=Mon, 10-Jul-2023 15:17:50 GMT; Max-Age=2592000; path=/; domain=.flickr.com",
      "x-content-type-options",
      "nosniff",
      "x-frame-options",
      "SAMEORIGIN",
      "X-Cache",
      "Miss from cloudfront",
      "Via",
      "1.1 2198d73d723eb37fb611b71c9a3c8382.cloudfront.net (CloudFront)",
      "X-Amz-Cf-Pop",
      "LHR50-P8",
      "X-Amz-Cf-Id",
      "-GO8VXQ4NZ_sBrnhkoqicKHgUvtF3XNddt0Du_cXLX0vFXFIyBHhOA=="
    ],
    "responseIsBinary": false
  },
  {
    "scope": "https://api.flickr.com:443",
    "method": "GET",
    "path": "/services/rest?method=flickr.people.getPublicPhotos&user_id=USER_ID&extras=url_sq%2Curl_q%2Curl_t%2Curl_s%2Curl_n%2Curl_m%2Curl_z%2Curl_c%2Curl_l%2Curl_h%2Curl_k%2Curl_ogeo&per_page=100&page=2&format=json&nojsoncallback=1&api_key=API_KEY",
    "body": "",
    "status": 200,
    "response": {
      "photos": {
        "page": 2,
        "pages": 2,
        "perpage": 100,
        "total": 140,
        "photo": [
          {
            "id": "4",
            "owner": "owner",
            "secret": "secret",
            "server": "12345",
            "farm": 0,
            "title": "title",
            "ispublic": 1,
            "isfriend": 0,
            "isfamily": 0,
            "license": "0",
            "description": { "_content": "description" },
            "dateupload": "1667328192",
            "lastupdate": "1667665974",
            "datetaken": "2022-11-01 18:42:51",
            "datetakengranularity": 0,
            "datetakenunknown": "1",
            "ownername": "ownername",
            "iconserver": "1234",
            "iconfarm": 1,
            "views": "12",
            "tags": "t1 t2 t3",
            "machine_tags": "",
            "latitude": 0,
            "longitude": 0,
            "accuracy": 0,
            "context": 0,
            "media": "photo",
            "media_status": "ready",
            "url_sq": "photo_url",
            "height_sq": 75,
            "width_sq": 75,
            "url_t": "photo_url",
            "height_t": 100,
            "width_t": 67,
            "url_s": "photo_url",
            "height_s": 240,
            "width_s": 160,
            "url_q": "photo_url",
            "height_q": 150,
            "width_q": 150,
            "url_m": "photo_url",
            "height_m": 500,
            "width_m": 333,
            "url_n": "photo_url",
            "height_n": 320,
            "width_n": 213,
            "url_z": "photo_url",
            "height_z": 640,
            "width_z": 427,
            "url_c": "photo_url",
            "height_c": 800,
            "width_c": 533,
            "url_l": "photo_url",
            "height_l": 1024,
            "width_l": 683,
            "url_h": "photo_url",
            "height_h": 1600,
            "width_h": 1066,
            "url_k": "photo_url",
            "height_k": 2048,
            "width_k": 1365,
            "pathalias": "pathalias"
          },
          {
            "id": "5",
            "owner": "owner",
            "secret": "secret",
            "server": "12345",
            "farm": 0,
            "title": "title",
            "ispublic": 1,
            "isfriend": 0,
            "isfamily": 0,
            "license": "0",
            "description": { "_content": "description" },
            "dateupload": "1667328192",
            "lastupdate": "1667665974",
            "datetaken": "2022-11-01 18:42:51",
            "datetakengranularity": 0,
            "datetakenunknown": "1",
            "ownername": "ownername",
            "iconserver": "1234",
            "iconfarm": 1,
            "views": "12",
            "tags": "t1 t2 t3",
            "machine_tags": "",
            "latitude": 0,
            "longitude": 0,
            "accuracy": 0,
            "context": 0,
            "media": "photo",
            "media_status": "ready",
            "url_sq": "photo_url",
            "height_sq": 75,
            "width_sq": 75,
            "url_t": "photo_url",
            "height_t": 100,
            "width_t": 67,
            "url_s": "photo_url",
            "height_s": 240,
            "width_s": 160,
            "url_q": "photo_url",
            "height_q": 150,
            "width_q": 150,
            "url_m": "photo_url",
            "height_m": 500,
            "width_m": 333,
            "url_n": "photo_url",
            "height_n": 320,
            "width_n": 213,
            "url_z": "photo_url",
            "height_z": 640,
            "width_z": 427,
            "url_c": "photo_url",
            "height_c": 800,
            "width_c": 533,
            "url_l": "photo_url",
            "height_l": 1024,
            "width_l": 683,
            "url_h": "photo_url",
            "height_h": 1600,
            "width_h": 1066,
            "url_k": "photo_url",
            "height_k": 2048,
            "width_k": 1365,
            "pathalias": "pathalias"
          },
          {
            "id": "6",
            "owner": "owner",
            "secret": "secret",
            "server": "12345",
            "farm": 0,
            "title": "title",
            "ispublic": 1,
            "isfriend": 0,
            "isfamily": 0,
            "license": "0",
            "description": { "_content": "description" },
            "dateupload": "1667328192",
            "lastupdate": "1667665974",
            "datetaken": "2022-11-01 18:42:51",
            "datetakengranularity": 0,
            "datetakenunknown": "1",
            "ownername": "ownername",
            "iconserver": "1234",
            "iconfarm": 1,
            "views": "12",
            "tags": "t1 t2 t3",
            "machine_tags": "",
            "latitude": 0,
            "longitude": 0,
            "accuracy": 0,
            "context": 0,
            "media": "photo",
            "media_status": "ready",
            "url_sq": "photo_url",
            "height_sq": 75,
            "width_sq": 75,
            "url_t": "photo_url",
            "height_t": 100,
            "width_t": 67,
            "url_s": "photo_url",
            "height_s": 240,
            "width_s": 160,
            "url_q": "photo_url",
            "height_q": 150,
            "width_q": 150,
            "url_m": "photo_url",
            "height_m": 500,
            "width_m": 333,
            "url_n": "photo_url",
            "height_n": 320,
            "width_n": 213,
            "url_z": "photo_url",
            "height_z": 640,
            "width_z": 427,
            "url_c": "photo_url",
            "height_c": 800,
            "width_c": 533,
            "url_l": "photo_url",
            "height_l": 1024,
            "width_l": 683,
            "url_h": "photo_url",
            "height_h": 1600,
            "width_h": 1066,
            "url_k": "photo_url",
            "height_k": 2048,
            "width_k": 1365,
            "pathalias": "pathalias"
          }
        ]
      },
      "stat": "ok"
    },
    "rawHeaders": [
      "Content-Type",
      "application/json",
      "Transfer-Encoding",
      "chunked",
      "Connection",
      "close",
      "Date",
      "Sat, 10 Jun 2023 15:17:51 GMT",
      "server",
      "Apache/2.4.57 (Ubuntu)",
      "set-cookie",
      "ccc=%7B%22needsConsent%22%3Atrue%2C%22managed%22%3A0%2C%22changed%22%3A0%2C%22info%22%3A%7B%22cookieBlock%22%3A%7B%22level%22%3A0%2C%22blockRan%22%3A0%7D%7D%7D; expires=Mon, 10-Jul-2023 15:17:50 GMT; Max-Age=2592000; path=/; domain=.flickr.com",
      "set-cookie",
      "ccc=%7B%22needsConsent%22%3Atrue%2C%22managed%22%3A0%2C%22changed%22%3A0%2C%22info%22%3A%7B%22cookieBlock%22%3A%7B%22level%22%3A0%2C%22blockRan%22%3A1%7D%7D%7D; expires=Mon, 10-Jul-2023 15:17:50 GMT; Max-Age=2592000; path=/; domain=.flickr.com",
      "x-content-type-options",
      "nosniff",
      "x-frame-options",
      "SAMEORIGIN",
      "X-Cache",
      "Miss from cloudfront",
      "Via",
      "1.1 876578453b1f658c7eb9b605fcd46df4.cloudfront.net (CloudFront)",
      "X-Amz-Cf-Pop",
      "LHR50-P8",
      "X-Amz-Cf-Id",
      "r6wXdKo2tCbxtxkDhirkfp26_f1PoWoweY9eystVDX5UqIt38mCTJw=="
    ],
    "responseIsBinary": false
  }
]
